%YAML 1.1
%TAG !u! tag:unity3d.com,2011:
--- !u!1 &4480349386007823581
GameObject:
  m_ObjectHideFlags: 0
  m_CorrespondingSourceObject: {fileID: 0}
  m_PrefabInstance: {fileID: 0}
  m_PrefabAsset: {fileID: 0}
  serializedVersion: 6
  m_Component:
  - component: {fileID: 1041518560028734159}
  - component: {fileID: 4594897421065872463}
  - component: {fileID: 5062922725037423799}
  m_Layer: 0
  m_Name: Deblis
  m_TagString: Matter
  m_Icon: {fileID: 0}
  m_NavMeshLayer: 0
  m_StaticEditorFlags: 0
  m_IsActive: 1
--- !u!4 &1041518560028734159
Transform:
  m_ObjectHideFlags: 0
  m_CorrespondingSourceObject: {fileID: 0}
  m_PrefabInstance: {fileID: 0}
  m_PrefabAsset: {fileID: 0}
  m_GameObject: {fileID: 4480349386007823581}
  m_LocalRotation: {x: 0, y: 0, z: 0, w: 1}
  m_LocalPosition: {x: 0, y: 0, z: 0}
  m_LocalScale: {x: 1, y: 1, z: 1}
  m_Children:
  - {fileID: 296424180165746475}
  m_Father: {fileID: 0}
  m_RootOrder: 0
  m_LocalEulerAnglesHint: {x: 0, y: 0, z: 0}
--- !u!114 &4594897421065872463
MonoBehaviour:
  m_ObjectHideFlags: 0
  m_CorrespondingSourceObject: {fileID: 0}
  m_PrefabInstance: {fileID: 0}
  m_PrefabAsset: {fileID: 0}
  m_GameObject: {fileID: 4480349386007823581}
  m_Enabled: 1
  m_EditorHideFlags: 0
  m_Script: {fileID: 11500000, guid: 569907654c42abc44948143245a6a484, type: 3}
  m_Name: 
  m_EditorClassIdentifier: 
  m_velocity: {x: 0, y: 0, z: 0}
  conveyor: {fileID: 0}
  type: 1
--- !u!65 &5062922725037423799
BoxCollider:
  m_ObjectHideFlags: 0
  m_CorrespondingSourceObject: {fileID: 0}
  m_PrefabInstance: {fileID: 0}
  m_PrefabAsset: {fileID: 0}
  m_GameObject: {fileID: 4480349386007823581}
  m_Material: {fileID: 0}
  m_IsTrigger: 1
  m_Enabled: 1
  serializedVersion: 2
  m_Size: {x: 1, y: 1, z: 1}
  m_Center: {x: -0.22, y: 0, z: 0}
--- !u!1001 &258857222977681600
PrefabInstance:
  m_ObjectHideFlags: 0
  serializedVersion: 2
  m_Modification:
    m_TransformParent: {fileID: 1041518560028734159}
    m_Modifications:
    - target: {fileID: -8679921383154817045, guid: 22d5a1ecbd20ce940b172afc179c596a, type: 3}
      propertyPath: m_RootOrder
      value: 0
      objectReference: {fileID: 0}
    - target: {fileID: -8679921383154817045, guid: 22d5a1ecbd20ce940b172afc179c596a, type: 3}
      propertyPath: m_LocalScale.x
      value: 60
      objectReference: {fileID: 0}
    - target: {fileID: -8679921383154817045, guid: 22d5a1ecbd20ce940b172afc179c596a, type: 3}
      propertyPath: m_LocalScale.y
      value: 60
      objectReference: {fileID: 0}
    - target: {fileID: -8679921383154817045, guid: 22d5a1ecbd20ce940b172afc179c596a, type: 3}
      propertyPath: m_LocalScale.z
      value: 60
      objectReference: {fileID: 0}
    - target: {fileID: -8679921383154817045, guid: 22d5a1ecbd20ce940b172afc179c596a, type: 3}
      propertyPath: m_LocalPosition.x
      value: 0
      objectReference: {fileID: 0}
    - target: {fileID: -8679921383154817045, guid: 22d5a1ecbd20ce940b172afc179c596a, type: 3}
      propertyPath: m_LocalPosition.y
      value: 0
      objectReference: {fileID: 0}
    - target: {fileID: -8679921383154817045, guid: 22d5a1ecbd20ce940b172afc179c596a, type: 3}
      propertyPath: m_LocalPosition.z
      value: 0
      objectReference: {fileID: 0}
    - target: {fileID: -8679921383154817045, guid: 22d5a1ecbd20ce940b172afc179c596a, type: 3}
      propertyPath: m_LocalRotation.w
      value: -0.15189974
      objectReference: {fileID: 0}
    - target: {fileID: -8679921383154817045, guid: 22d5a1ecbd20ce940b172afc179c596a, type: 3}
      propertyPath: m_LocalRotation.x
      value: -0.6361526
      objectReference: {fileID: 0}
    - target: {fileID: -8679921383154817045, guid: 22d5a1ecbd20ce940b172afc179c596a, type: 3}
      propertyPath: m_LocalRotation.y
      value: 0.6490906
      objectReference: {fileID: 0}
    - target: {fileID: -8679921383154817045, guid: 22d5a1ecbd20ce940b172afc179c596a, type: 3}
      propertyPath: m_LocalRotation.z
      value: 0.3884813
      objectReference: {fileID: 0}
    - target: {fileID: -8679921383154817045, guid: 22d5a1ecbd20ce940b172afc179c596a, type: 3}
      propertyPath: m_LocalEulerAnglesHint.x
      value: 0
      objectReference: {fileID: 0}
    - target: {fileID: -8679921383154817045, guid: 22d5a1ecbd20ce940b172afc179c596a, type: 3}
      propertyPath: m_LocalEulerAnglesHint.y
      value: 0
      objectReference: {fileID: 0}
    - target: {fileID: -8679921383154817045, guid: 22d5a1ecbd20ce940b172afc179c596a, type: 3}
      propertyPath: m_LocalEulerAnglesHint.z
      value: 0
      objectReference: {fileID: 0}
    - target: {fileID: -7511558181221131132, guid: 22d5a1ecbd20ce940b172afc179c596a, type: 3}
      propertyPath: m_Materials.Array.data[0]
      value: 
      objectReference: {fileID: 2100000, guid: f76f8e54fc665a64e9338fe6b27d6047, type: 2}
    - target: {fileID: 919132149155446097, guid: 22d5a1ecbd20ce940b172afc179c596a, type: 3}
      propertyPath: m_Name
      value: BrokenSphere
      objectReference: {fileID: 0}
    m_RemovedComponents: []
  m_SourcePrefab: {fileID: 100100000, guid: 22d5a1ecbd20ce940b172afc179c596a, type: 3}
--- !u!4 &296424180165746475 stripped
Transform:
  m_CorrespondingSourceObject: {fileID: -8679921383154817045, guid: 22d5a1ecbd20ce940b172afc179c596a, type: 3}
  m_PrefabInstance: {fileID: 258857222977681600}
  m_PrefabAsset: {fileID: 0}
